\relax 
\providecommand\hyper@newdestlabel[2]{}
\providecommand\HyperFirstAtBeginDocument{\AtBeginDocument}
\HyperFirstAtBeginDocument{\ifx\hyper@anchor\@undefined
\global\let\oldcontentsline\contentsline
\gdef\contentsline#1#2#3#4{\oldcontentsline{#1}{#2}{#3}}
\global\let\oldnewlabel\newlabel
\gdef\newlabel#1#2{\newlabelxx{#1}#2}
\gdef\newlabelxx#1#2#3#4#5#6{\oldnewlabel{#1}{{#2}{#3}}}
\AtEndDocument{\ifx\hyper@anchor\@undefined
\let\contentsline\oldcontentsline
\let\newlabel\oldnewlabel
\fi}
\fi}
\global\let\hyper@last\relax 
\gdef\HyperFirstAtBeginDocument#1{#1}
\providecommand\HyField@AuxAddToFields[1]{}
\providecommand\HyField@AuxAddToCoFields[2]{}
\@writefile{toc}{\contentsline {section}{Filter Design Problem}{2}{section*.1}}
\@writefile{toc}{\contentsline {section}{Filter Design}{3}{section*.2}}
\@writefile{toc}{\contentsline {subsection}{Choosing half the points}{5}{section*.3}}
\@writefile{toc}{\contentsline {subsection}{Analysis}{7}{section*.4}}
\@writefile{toc}{\contentsline {section}{Frequency Sampling Method}{8}{section*.5}}
\@writefile{toc}{\contentsline {section}{Appendix A: Filter Design code}{9}{section*.6}}
\@writefile{lol}{\contentsline {lstlisting}{proc.py}{9}{lstlisting.-1}}
\@writefile{toc}{\contentsline {section}{Appendix B: FIR Filter Module}{12}{section*.7}}
\@writefile{lol}{\contentsline {lstlisting}{fir.py}{12}{lstlisting.-2}}
