\relax 
\providecommand\hyper@newdestlabel[2]{}
\providecommand\HyperFirstAtBeginDocument{\AtBeginDocument}
\HyperFirstAtBeginDocument{\ifx\hyper@anchor\@undefined
\global\let\oldcontentsline\contentsline
\gdef\contentsline#1#2#3#4{\oldcontentsline{#1}{#2}{#3}}
\global\let\oldnewlabel\newlabel
\gdef\newlabel#1#2{\newlabelxx{#1}#2}
\gdef\newlabelxx#1#2#3#4#5#6{\oldnewlabel{#1}{{#2}{#3}}}
\AtEndDocument{\ifx\hyper@anchor\@undefined
\let\contentsline\oldcontentsline
\let\newlabel\oldnewlabel
\fi}
\fi}
\global\let\hyper@last\relax 
\gdef\HyperFirstAtBeginDocument#1{#1}
\providecommand\HyField@AuxAddToFields[1]{}
\providecommand\HyField@AuxAddToCoFields[2]{}
\@writefile{toc}{\contentsline {section}{Discrete Fourier Transforms and Implementations}{2}{section*.1}}
\@writefile{toc}{\contentsline {section}{DFT \& IDFT using Vectorization}{3}{section*.2}}
\@writefile{lol}{\contentsline {lstlisting}{dft.py}{3}{lstlisting.-1}}
\@writefile{toc}{\contentsline {section}{Reduction of sidebands using windowing methods}{5}{section*.3}}
\@writefile{lol}{\contentsline {lstlisting}{dft.py}{5}{lstlisting.-2}}
\@writefile{toc}{\contentsline {section}{Circular Convolution}{9}{section*.4}}
\@writefile{toc}{\contentsline {subsection}{DFT}{9}{section*.5}}
\@writefile{lol}{\contentsline {lstlisting}{dft.py}{9}{lstlisting.-3}}
\@writefile{toc}{\contentsline {subsection}{Linear Convolution}{9}{section*.6}}
\@writefile{lol}{\contentsline {lstlisting}{dft.py}{9}{lstlisting.-4}}
\@writefile{lol}{\contentsline {lstlisting}{dft.py}{10}{lstlisting.-5}}
\@writefile{toc}{\contentsline {section}{Appendix: Master code for implementing the assignment}{11}{section*.7}}
\@writefile{lol}{\contentsline {lstlisting}{dft.py}{11}{lstlisting.-6}}
