\BOOKMARK [1][-]{section*.1}{Discrete Fourier Transforms and Implementations}{}% 1
\BOOKMARK [1][-]{section*.2}{DFT \046 IDFT using Vectorization}{}% 2
\BOOKMARK [1][-]{section*.3}{Reduction of sidebands using windowing methods}{}% 3
\BOOKMARK [1][-]{section*.4}{Circular Convolution}{}% 4
\BOOKMARK [2][-]{section*.5}{DFT}{section*.4}% 5
\BOOKMARK [2][-]{section*.6}{Linear Convolution}{section*.4}% 6
\BOOKMARK [1][-]{section*.7}{Appendix: Master code for implementing the assignment}{}% 7
