\relax 
\providecommand\hyper@newdestlabel[2]{}
\providecommand\HyperFirstAtBeginDocument{\AtBeginDocument}
\HyperFirstAtBeginDocument{\ifx\hyper@anchor\@undefined
\global\let\oldcontentsline\contentsline
\gdef\contentsline#1#2#3#4{\oldcontentsline{#1}{#2}{#3}}
\global\let\oldnewlabel\newlabel
\gdef\newlabel#1#2{\newlabelxx{#1}#2}
\gdef\newlabelxx#1#2#3#4#5#6{\oldnewlabel{#1}{{#2}{#3}}}
\AtEndDocument{\ifx\hyper@anchor\@undefined
\let\contentsline\oldcontentsline
\let\newlabel\oldnewlabel
\fi}
\fi}
\global\let\hyper@last\relax 
\gdef\HyperFirstAtBeginDocument#1{#1}
\providecommand\HyField@AuxAddToFields[1]{}
\providecommand\HyField@AuxAddToCoFields[2]{}
\@writefile{toc}{\contentsline {section}{FFT Algorithms}{2}{section*.1}}
\@writefile{toc}{\contentsline {section}{DIT-FFT}{3}{section*.2}}
\@writefile{lol}{\contentsline {lstlisting}{fft.py}{3}{lstlisting.-1}}
\@writefile{toc}{\contentsline {section}{DIF-FFT}{4}{section*.3}}
\@writefile{lol}{\contentsline {lstlisting}{fft.py}{4}{lstlisting.-2}}
\@writefile{toc}{\contentsline {section}{Comparison with DFT}{5}{section*.4}}
\@writefile{lol}{\contentsline {lstlisting}{fft.py}{5}{lstlisting.-3}}
\@writefile{toc}{\contentsline {section}{Appendix: DIT-FFT and DIF-FFT Algorithm code}{6}{section*.5}}
\@writefile{lol}{\contentsline {lstlisting}{fft.py}{6}{lstlisting.-4}}
