\relax 
\providecommand\hyper@newdestlabel[2]{}
\providecommand\HyperFirstAtBeginDocument{\AtBeginDocument}
\HyperFirstAtBeginDocument{\ifx\hyper@anchor\@undefined
\global\let\oldcontentsline\contentsline
\gdef\contentsline#1#2#3#4{\oldcontentsline{#1}{#2}{#3}}
\global\let\oldnewlabel\newlabel
\gdef\newlabel#1#2{\newlabelxx{#1}#2}
\gdef\newlabelxx#1#2#3#4#5#6{\oldnewlabel{#1}{{#2}{#3}}}
\AtEndDocument{\ifx\hyper@anchor\@undefined
\let\contentsline\oldcontentsline
\let\newlabel\oldnewlabel
\fi}
\fi}
\global\let\hyper@last\relax 
\gdef\HyperFirstAtBeginDocument#1{#1}
\providecommand\HyField@AuxAddToFields[1]{}
\providecommand\HyField@AuxAddToCoFields[2]{}
\@writefile{toc}{\contentsline {section}{Time Complexity of Searching and Sorting Algorithms}{2}{section*.1}}
\@writefile{toc}{\contentsline {section}{Linear Search}{3}{section*.2}}
\@writefile{lol}{\contentsline {lstlisting}{search.py}{3}{lstlisting.-1}}
\@writefile{toc}{\contentsline {section}{Selection Sort}{4}{section*.3}}
\@writefile{lol}{\contentsline {lstlisting}{search.py}{4}{lstlisting.-2}}
\@writefile{toc}{\contentsline {section}{Bubble Sort}{5}{section*.4}}
\@writefile{lol}{\contentsline {lstlisting}{search.py}{5}{lstlisting.-3}}
\@writefile{toc}{\contentsline {section}{DFT Algorithm}{6}{section*.5}}
\@writefile{lol}{\contentsline {lstlisting}{dft.py}{6}{lstlisting.-4}}
\@writefile{toc}{\contentsline {section}{Appendix A: Search/Sort algorithms code}{7}{section*.6}}
\@writefile{lol}{\contentsline {lstlisting}{search.py}{7}{lstlisting.-5}}
\@writefile{toc}{\contentsline {section}{Appendix B: DFT Algorithm code}{11}{section*.7}}
\@writefile{lol}{\contentsline {lstlisting}{dft.py}{11}{lstlisting.-6}}
